…
  Here is an example of this function, pulling the post-season games for
Lebron James when he was on the Miami Heat from 2010-2014.

``` r
Lebron_Heat_Playoffs <- player_game_stats(first_name = "lebron",
                                          last_name = "james",
                                          season = c(2010:2013),
                                          postseason = TRUE)
Lebron_Heat_Playoffs
```

    ## # A tibble: 87 × 28
    ##    date       min     pts   reb   ast   stl   blk   fgm   fga fg_pct  fg3m  fg3a fg3_pct   ftm   fta
    ##    <chr>      <chr> <int> <int> <int> <int> <int> <int> <int>  <dbl> <int> <int>   <dbl> <int> <int>
    ##  1 2011-04-16 42:43    21    14     5     1     3     4    14  0.286     0     2   0        13    14
    ##  2 2011-04-18 38:55    29     7     6     0     0    10    19  0.526     1     1   1         8    10
    ##  3 2011-04-21 44:16    24    15     6     1     0     8    15  0.533     1     4   0.25      7    10
    ##  4 2011-04-24 43:33    31     7     6     1     1    11    20  0.55      0     4   0         9    11
    ##  5 2011-04-27 41:40    16    10     8     1     0     5    13  0.385     2     5   0.4       4     5
    ##  6 2011-05-01 39:54    22     6     5     2     2     8    19  0.421     1     3   0.333     5     9
    ##  7 2011-05-03 44:03    35     7     2     1     1    14    25  0.56      2     4   0.5       5     8
    ##  8 2011-05-07 42:48    15     7     4     2     5     6    16  0.375     0     3   0         3     7
    ##  9 2011-05-09 50:17    35    14     3     3     0    12    28  0.429     2     6   0.333     9     9
    ## 10 2011-05-11 45:43    33     7     4     1     1    11    20  0.55      5     7   0.714     6     9
    ## # ℹ 77 more rows
    ## # ℹ 13 more variables: ft_pct <dbl>, oreb <int>, dreb <int>, turnover <int>, pf <int>,
    ## #   home_away <chr>, win_loss <chr>, player_team <chr>, team_score <int>, opponent_team <chr>,
    ## #   opponent_score <int>, post_season <lgl>, season <fct>
…
## Game Statistics Dataset Creation

The below code creates a dataset of stats for all games played by Jayson
Tatum. This data will be used for all game-level analyses below.

``` r
tatum_all_games <- player_game_stats(first_name = "jayson", last_name = "tatum")
tatum_all_games
```

    ## # A tibble: 550 × 28
    ##    date       min     pts   reb   ast   stl   blk   fgm   fga fg_pct  fg3m  fg3a fg3_pct   ftm   fta
    ##    <chr>      <chr> <int> <int> <int> <int> <int> <int> <int>  <dbl> <int> <int>   <dbl> <int> <int>
    ##  1 2017-10-17 36:32    14    10     3     0     0     5    12  0.417     1     2   0.5       3     3
    ##  2 2017-10-18 36:32     8     9     2     1     0     3     7  0.429     0     1   0         2     5
    ##  3 2017-10-20 32:45    15     8     0     0     3     3     8  0.375     0     2   0         9     9
    ##  4 2017-10-24 31:08    22     4     2     4     2     9    15  0.6       4     6   0.667     0     0
    ##  5 2017-10-26 27:49    12     2     3     1     0     3     6  0.5       1     3   0.333     5     5
    ##  6 2017-10-28 31:28    20     5     0     0     0     6     9  0.667     2     2   1         6     7
    ##  7 2017-10-30 35:18     7    11     2     0     3     2     7  0.286     2     4   0.5       1     2
    ##  8 2017-11-01 26:25    12     4     2     0     0     4     7  0.571     1     2   0.5       3     4
    ##  9 2017-11-03 29:48    13     6     3     0     0     4    10  0.4       2     3   0.667     3     4
    ## 10 2017-11-05 27:19    13     4     3     1     0     5     8  0.625     2     4   0.5       1     2
    ## # ℹ 540 more rows
    ## # ℹ 13 more variables: ft_pct <dbl>, oreb <int>, dreb <int>, turnover <int>, pf <int>,
    ## #   home_away <chr>, win_loss <chr>, player_team <chr>, team_score <int>, opponent_team <chr>,
    ## #   opponent_score <int>, post_season <lgl>, season <fct>
…
